…
``` r
nyc_airbnb %>% 
  filter(boro == "Manhattan") %>% 
  modelr::bootstrap(n = 1000, id = "strap_number") %>% 
  mutate(
    models = map(.x = strap, ~lm(price ~ stars, data = .x)),
    results = map(models, broom::tidy)
  ) %>% 
  select(strap_number, results) %>% 
  unnest(results)
```

    ## # A tibble: 2,000 x 6
    ##    strap_number term        estimate std.error statistic  p.value
    ##    <chr>        <chr>          <dbl>     <dbl>     <dbl>    <dbl>
    ##  1 0001         (Intercept)    -28.4     28.6     -0.994 3.20e- 1
    ##  2 0001         stars           42.5      5.95     7.14  9.46e-13
    ##  3 0002         (Intercept)    -83.1     18.8     -4.43  9.33e- 6
    ##  4 0002         stars           53.4      3.91    13.7   2.97e-42
    ##  5 0003         (Intercept)     31.0     27.0      1.15  2.50e- 1
    ##  6 0003         stars           30.0      5.62     5.33  9.72e- 8
    ##  7 0004         (Intercept)    -69.5     18.5     -3.77  1.66e- 4
    ##  8 0004         stars           50.3      3.85    13.1   6.84e-39
    ##  9 0005         (Intercept)    -65.6     18.5     -3.54  4.09e- 4
    ## 10 0005         stars           49.2      3.86    12.7   5.57e-37
    ## # ... with 1,990 more rows
